7/11/2017 3:33:08 PM
ex: System.ArgumentException: Column 'Social_comments_count' does not belong to table Table.
   at System.Data.DataRow.GetDataColumn(String columnName)
   at System.Data.DataRow.get_Item(String columnName)
   at SocialWall.Admin.Controllers.FeedApiController.Get(Int32 id) in C:\ABDUL\Projects\SocialWall\Project\SocialWall\SocialWall.Admin\Controllers\FeedApiController.cs:line 39
ex.Message: Column 'Social_comments_count' does not belong to table Table.
ex.StackTrace:    at System.Data.DataRow.GetDataColumn(String columnName)
   at System.Data.DataRow.get_Item(String columnName)
   at SocialWall.Admin.Controllers.FeedApiController.Get(Int32 id) in C:\ABDUL\Projects\SocialWall\Project\SocialWall\SocialWall.Admin\Controllers\FeedApiController.cs:line 39
ex.Source: System.Data
innerexceptions: Exception type: System.ArgumentException
Message       : Column 'Social_comments_count' does not belong to table Table.
Stacktrace:
   at System.Data.DataRow.GetDataColumn(String columnName)
   at System.Data.DataRow.get_Item(String columnName)
   at SocialWall.Admin.Controllers.FeedApiController.Get(Int32 id) in C:\ABDUL\Projects\SocialWall\Project\SocialWall\SocialWall.Admin\Controllers\FeedApiController.cs:line 39




7/11/2017 3:33:08 PM
ex: System.ArgumentException: Column 'Social_comments_count' does not belong to table Table.
   at System.Data.DataRow.GetDataColumn(String columnName)
   at System.Data.DataRow.get_Item(String columnName)
   at SocialWall.Admin.Controllers.FeedApiController.Get(Int32 id) in C:\ABDUL\Projects\SocialWall\Project\SocialWall\SocialWall.Admin\Controllers\FeedApiController.cs:line 39
ex.Message: Column 'Social_comments_count' does not belong to table Table.
ex.StackTrace:    at System.Data.DataRow.GetDataColumn(String columnName)
   at System.Data.DataRow.get_Item(String columnName)
   at SocialWall.Admin.Controllers.FeedApiController.Get(Int32 id) in C:\ABDUL\Projects\SocialWall\Project\SocialWall\SocialWall.Admin\Controllers\FeedApiController.cs:line 39
ex.Source: System.Data
innerexceptions: Exception type: System.ArgumentException
Message       : Column 'Social_comments_count' does not belong to table Table.
Stacktrace:
   at System.Data.DataRow.GetDataColumn(String columnName)
   at System.Data.DataRow.get_Item(String columnName)
   at SocialWall.Admin.Controllers.FeedApiController.Get(Int32 id) in C:\ABDUL\Projects\SocialWall\Project\SocialWall\SocialWall.Admin\Controllers\FeedApiController.cs:line 39




7/11/2017 3:34:30 PM
ex: System.ArgumentException: Column 'Social_comments_count' does not belong to table Table.
   at System.Data.DataRow.GetDataColumn(String columnName)
   at System.Data.DataRow.get_Item(String columnName)
   at SocialWall.Admin.Controllers.FeedApiController.Get(Int32 id) in C:\ABDUL\Projects\SocialWall\Project\SocialWall\SocialWall.Admin\Controllers\FeedApiController.cs:line 39
ex.Message: Column 'Social_comments_count' does not belong to table Table.
ex.StackTrace:    at System.Data.DataRow.GetDataColumn(String columnName)
   at System.Data.DataRow.get_Item(String columnName)
   at SocialWall.Admin.Controllers.FeedApiController.Get(Int32 id) in C:\ABDUL\Projects\SocialWall\Project\SocialWall\SocialWall.Admin\Controllers\FeedApiController.cs:line 39
ex.Source: System.Data
innerexceptions: Exception type: System.ArgumentException
Message       : Column 'Social_comments_count' does not belong to table Table.
Stacktrace:
   at System.Data.DataRow.GetDataColumn(String columnName)
   at System.Data.DataRow.get_Item(String columnName)
   at SocialWall.Admin.Controllers.FeedApiController.Get(Int32 id) in C:\ABDUL\Projects\SocialWall\Project\SocialWall\SocialWall.Admin\Controllers\FeedApiController.cs:line 39




7/11/2017 3:35:35 PM
ex: System.ArgumentException: Column 'Social_comments_count' does not belong to table Table.
   at System.Data.DataRow.GetDataColumn(String columnName)
   at System.Data.DataRow.get_Item(String columnName)
   at SocialWall.Admin.Controllers.FeedApiController.Get(Int32 id) in C:\ABDUL\Projects\SocialWall\Project\SocialWall\SocialWall.Admin\Controllers\FeedApiController.cs:line 39
ex.Message: Column 'Social_comments_count' does not belong to table Table.
ex.StackTrace:    at System.Data.DataRow.GetDataColumn(String columnName)
   at System.Data.DataRow.get_Item(String columnName)
   at SocialWall.Admin.Controllers.FeedApiController.Get(Int32 id) in C:\ABDUL\Projects\SocialWall\Project\SocialWall\SocialWall.Admin\Controllers\FeedApiController.cs:line 39
ex.Source: System.Data
innerexceptions: Exception type: System.ArgumentException
Message       : Column 'Social_comments_count' does not belong to table Table.
Stacktrace:
   at System.Data.DataRow.GetDataColumn(String columnName)
   at System.Data.DataRow.get_Item(String columnName)
   at SocialWall.Admin.Controllers.FeedApiController.Get(Int32 id) in C:\ABDUL\Projects\SocialWall\Project\SocialWall\SocialWall.Admin\Controllers\FeedApiController.cs:line 39




7/11/2017 3:38:32 PM
ex: System.ArgumentException: Column 'Social_comments_count' does not belong to table Table.
   at System.Data.DataRow.GetDataColumn(String columnName)
   at System.Data.DataRow.get_Item(String columnName)
   at SocialWall.Admin.Controllers.FeedApiController.Get(Int32 id) in C:\ABDUL\Projects\SocialWall\Project\SocialWall\SocialWall.Admin\Controllers\FeedApiController.cs:line 39
ex.Message: Column 'Social_comments_count' does not belong to table Table.
ex.StackTrace:    at System.Data.DataRow.GetDataColumn(String columnName)
   at System.Data.DataRow.get_Item(String columnName)
   at SocialWall.Admin.Controllers.FeedApiController.Get(Int32 id) in C:\ABDUL\Projects\SocialWall\Project\SocialWall\SocialWall.Admin\Controllers\FeedApiController.cs:line 39
ex.Source: System.Data
innerexceptions: Exception type: System.ArgumentException
Message       : Column 'Social_comments_count' does not belong to table Table.
Stacktrace:
   at System.Data.DataRow.GetDataColumn(String columnName)
   at System.Data.DataRow.get_Item(String columnName)
   at SocialWall.Admin.Controllers.FeedApiController.Get(Int32 id) in C:\ABDUL\Projects\SocialWall\Project\SocialWall\SocialWall.Admin\Controllers\FeedApiController.cs:line 39




